simx.vcd
$version Generated by VerilatedVcd $end
$date Sat May  7 09:32:24 2022 $end
$timescale 1ps $end

 $scope module TOP $end
  $var wire  1 ^" clk $end
  $var wire  1 `" ebreak $end
  $var wire 64 a" pc [63:0] $end
  $var wire  1 _" rst $end
  $scope module top $end
   $var wire  1 ^" clk $end
   $var wire  1 `" ebreak $end
   $var wire 64 a" pc [63:0] $end
   $var wire  1 _" rst $end
   $scope module rv_cpu $end
    $var wire  1 % alu2reg_en $end
    $var wire 17 6 alu_ctrl [16:0] $end
    $var wire 64 > alu_res [63:0] $end
    $var wire  1 @ alu_sext_before_wr_reg $end
    $var wire  1 B alu_sr1_pc_en $end
    $var wire  1 A alu_sr1_rs1_en $end
    $var wire  1 D alu_sr2_imm_en $end
    $var wire  1 E alu_sr2_pc_en $end
    $var wire  1 C alu_sr2_rs2_en $end
    $var wire 64 : alu_src1 [63:0] $end
    $var wire 64 < alu_src2 [63:0] $end
    $var wire  1 ^" clk $end
    $var wire  1 `" cpuebreak $end
    $var wire 64 a" cpupc [63:0] $end
    $var wire  1 W" ebreak $end
    $var wire 64 ' imm [63:0] $end
    $var wire 32 9 instr [31:0] $end
    $var wire  1 & mem2reg_en $end
    $var wire 64 S" mem_rd_data [63:0] $end
    $var wire 64 P" pc [63:0] $end
    $var wire 64 1 pc_reg [63:0] $end
    $var wire  3 R" pc_sel [2:0] $end
    $var wire  4 3 pc_src_en [3:0] $end
    $var wire  5 0 rd [4:0] $end
    $var wire 64 > rd_addr2mem [63:0] $end
    $var wire 64 > rd_mem_addr [63:0] $end
    $var wire  1 7 rd_mem_en $end
    $var wire  7 ) rd_mem_op [6:0] $end
    $var wire  5 . rs1_addr [4:0] $end
    $var wire 64 * rs1_data [63:0] $end
    $var wire  1 # rs1_en $end
    $var wire  5 / rs2_addr [4:0] $end
    $var wire 64 , rs2_data [63:0] $end
    $var wire  1 $ rs2_en $end
    $var wire  1 _" rst $end
    $var wire 64 P" wr_addr2instrmem [63:0] $end
    $var wire 64 > wr_addr2mem [63:0] $end
    $var wire  1 8 wr_mem_en $end
    $var wire  8 5 wr_rd_mem_len [7:0] $end
    $var wire 64 U" wr_reg_data [63:0] $end
    $var wire  1 4 wr_reg_en $end
    $scope module rv64_alu $end
     $var wire  1 [ add_cin $end
     $var wire  1 ^ add_cout $end
     $var wire  1 x add_cout_u $end
     $var wire 64 \ add_res [63:0] $end
     $var wire 64 v add_res_u [63:0] $end
     $var wire 64 W add_src1 [63:0] $end
     $var wire 64 Y add_src2 [63:0] $end
     $var wire 64 \ add_sub_res [63:0] $end
     $var wire 17 6 alu_ctrl [16:0] $end
     $var wire 64 > alu_res [63:0] $end
     $var wire 64 : alu_sr1 [63:0] $end
     $var wire 64 < alu_sr2 [63:0] $end
     $var wire 64 _ and_res [63:0] $end
     $var wire 64 q beq_res [63:0] $end
     $var wire 64 s bne_res [63:0] $end
     $var wire 64 e lui_res [63:0] $end
     $var wire  1 F op_add $end
     $var wire  1 J op_and $end
     $var wire  1 Q op_beq $end
     $var wire  1 T op_bge $end
     $var wire  1 V op_bgeu $end
     $var wire  1 S op_blt $end
     $var wire  1 U op_bltu $end
     $var wire  1 R op_bne $end
     $var wire  1 P op_lui $end
     $var wire  1 L op_or $end
     $var wire  1 M op_sll $end
     $var wire  1 H op_slt $end
     $var wire  1 I op_sltu $end
     $var wire  1 O op_sra $end
     $var wire  1 N op_srl $end
     $var wire  1 G op_sub $end
     $var wire  1 K op_xor $end
     $var wire 64 a or_res [63:0] $end
     $var wire  1 u sign $end
     $var wire 64 k sll_res [63:0] $end
     $var wire 64 g slt_blt_bge_res [63:0] $end
     $var wire 64 i sltu_bltu_bgeu_res [63:0] $end
     $var wire 64 o sra_res [63:0] $end
     $var wire 64 m srl_res [63:0] $end
     $var wire 64 c xor_res [63:0] $end
    $upscope $end
    $scope module rv64_ctrl $end
     $var wire  1 % alu2reg_en $end
     $var wire 64 > alu_res [63:0] $end
     $var wire  1 @ alu_sext_before_wr_reg $end
     $var wire  1 B alu_sr1_pc_en $end
     $var wire  1 A alu_sr1_rs1_en $end
     $var wire  1 D alu_sr2_imm_en $end
     $var wire  1 E alu_sr2_pc_en $end
     $var wire  1 C alu_sr2_rs2_en $end
     $var wire 64 : alu_src1 [63:0] $end
     $var wire 64 < alu_src2 [63:0] $end
     $var wire 64 ' imm [63:0] $end
     $var wire  1 & mem2reg_en $end
     $var wire 64 S" mem_rd_data [63:0] $end
     $var wire 64 1 pc [63:0] $end
     $var wire  3 R" pc_sel [2:0] $end
     $var wire  4 3 pc_src_en [3:0] $end
     $var wire 64 > rd_mem_addr [63:0] $end
     $var wire  7 ) rd_mem_op [6:0] $end
     $var wire 64 * rs1_reg2ctrl [63:0] $end
     $var wire 64 , rs2_reg2ctrl [63:0] $end
     $var wire  1 _" rst $end
     $var wire 64 U" wr_reg_data [63:0] $end
    $upscope $end
    $scope module rv64_data_mem $end
     $var wire  1 ^" clk $end
     $var wire 64 > rd_addr [63:0] $end
     $var wire 64 S" rd_data [63:0] $end
     $var wire  1 7 rd_en $end
     $var wire 64 d" rdata [63:0] $end
     $var wire  1 _" rst $end
     $var wire 64 h" waddr [63:0] $end
     $var wire 64 f" wdata [63:0] $end
     $var wire  8 j" wlen [7:0] $end
     $var wire 64 > wr_addr [63:0] $end
     $var wire 64 , wr_data [63:0] $end
     $var wire  1 8 wr_en $end
     $var wire  8 5 wr_len [7:0] $end
    $upscope $end
    $scope module rv64_idu $end
     $var wire  1 % alu2reg_en $end
     $var wire 17 6 alu_ctrl [16:0] $end
     $var wire  1 @ alu_sext_before_wr_reg $end
     $var wire  1 B alu_sr1_pc_en $end
     $var wire  1 A alu_sr1_rs1_en $end
     $var wire  1 D alu_sr2_imm_en $end
     $var wire  1 E alu_sr2_pc_en $end
     $var wire  1 C alu_sr2_rs2_en $end
     $var wire  1 W" ebreak $end
     $var wire  3 z func3 [2:0] $end
     $var wire  1 (! func3_000 $end
     $var wire  1 )! func3_001 $end
     $var wire  1 *! func3_010 $end
     $var wire  1 +! func3_011 $end
     $var wire  1 ,! func3_100 $end
     $var wire  1 -! func3_101 $end
     $var wire  1 .! func3_110 $end
     $var wire  1 /! func3_111 $end
     $var wire  7 { func7 [6:0] $end
     $var wire 64 ' imm [63:0] $end
     $var wire 64 $! immB [63:0] $end
     $var wire 64 | immI [63:0] $end
     $var wire 64 &! immJ [63:0] $end
     $var wire 64 "! immS [63:0] $end
     $var wire 64 ~ immU [63:0] $end
     $var wire  1 ]! imm_en $end
     $var wire 32 9 instr [31:0] $end
     $var wire  1 & mem2reg_en $end
     $var wire  1 4! op_b $end
     $var wire  1 5! op_cali $end
     $var wire  1 1! op_i $end
     $var wire  1 i! op_iw $end
     $var wire  1 3! op_j $end
     $var wire  1 & op_memi $end
     $var wire  1 2! op_r $end
     $var wire  1 ^! op_rw $end
     $var wire  1 8 op_s $end
     $var wire  1 0! op_u $end
     $var wire  7 y opcode [6:0] $end
     $var wire  4 3 pc_src_en [3:0] $end
     $var wire  5 0 rd [4:0] $end
     $var wire  1 7 rd_mem_en $end
     $var wire  7 ) rd_mem_op [6:0] $end
     $var wire  5 . rs1 [4:0] $end
     $var wire  1 # rs1_en $end
     $var wire  5 / rs2 [4:0] $end
     $var wire  1 $ rs2_en $end
     $var wire  1 _" rst $end
     $var wire  1 ?! rv_add $end
     $var wire  1 6! rv_addi $end
     $var wire  1 j! rv_addiw $end
     $var wire  1 _! rv_addw $end
     $var wire  1 H! rv_and $end
     $var wire  1 ;! rv_andi $end
     $var wire  1 U! rv_auipc $end
     $var wire  1 J! rv_beq $end
     $var wire  1 M! rv_bge $end
     $var wire  1 O! rv_bgeu $end
     $var wire  1 L! rv_blt $end
     $var wire  1 N! rv_bltu $end
     $var wire  1 K! rv_bne $end
     $var wire  1 e! rv_diuw $end
     $var wire  1 f! rv_divuw $end
     $var wire  1 3! rv_jal $end
     $var wire  1 I! rv_jalr $end
     $var wire  1 Y! rv_lb $end
     $var wire  1 \! rv_lbu $end
     $var wire  1 V! rv_ld $end
     $var wire  1 X! rv_lh $end
     $var wire  1 [! rv_lhu $end
     $var wire  1 T! rv_lui $end
     $var wire  1 W! rv_lw $end
     $var wire  1 Z! rv_lwu $end
     $var wire  1 d! rv_mulw $end
     $var wire  1 G! rv_or $end
     $var wire  1 :! rv_ori $end
     $var wire  1 h! rv_remuw $end
     $var wire  1 g! rv_remw $end
     $var wire  1 P! rv_sb $end
     $var wire  1 S! rv_sd $end
     $var wire  1 Q! rv_sh $end
     $var wire  1 A! rv_sll $end
     $var wire  1 <! rv_slli $end
     $var wire  1 k! rv_slliw $end
     $var wire  1 a! rv_sllw $end
     $var wire  1 B! rv_slt $end
     $var wire  1 7! rv_slti $end
     $var wire  1 8! rv_sltiu $end
     $var wire  1 C! rv_sltu $end
     $var wire  1 F! rv_sra $end
     $var wire  1 >! rv_srai $end
     $var wire  1 m! rv_sraiw $end
     $var wire  1 c! rv_sraw $end
     $var wire  1 E! rv_srl $end
     $var wire  1 =! rv_srli $end
     $var wire  1 l! rv_srliw $end
     $var wire  1 b! rv_srlw $end
     $var wire  1 @! rv_sub $end
     $var wire  1 `! rv_subw $end
     $var wire  1 R! rv_sw $end
     $var wire  1 D! rv_xor $end
     $var wire  1 9! rv_xori $end
     $var wire  1 8 wr_mem_en $end
     $var wire  8 5 wr_rd_mem_len [7:0] $end
     $var wire  1 4 wr_reg_en $end
    $upscope $end
    $scope module rv64_instr_mem $end
     $var wire  1 ^" clk $end
     $var wire 64 P" rd_addr [63:0] $end
     $var wire  1 c" rd_en $end
     $var wire 32 9 rd_instr [31:0] $end
     $var wire 64 \" rdata [63:0] $end
     $var wire  1 _" rst $end
    $upscope $end
    $scope module rv64_pc $end
     $var wire  1 ^" clk $end
     $var wire  1 W" ebreak $end
     $var wire 64 ' imm [63:0] $end
     $var wire 64 P" pc [63:0] $end
     $var wire 64 1 pc_reg [63:0] $end
     $var wire  3 R" pc_sel [2:0] $end
     $var wire 64 X" pc_src1 [63:0] $end
     $var wire 64 Z" pc_src2 [63:0] $end
     $var wire 64 * rs1 [63:0] $end
     $var wire  1 _" rst $end
    $upscope $end
    $scope module rv64_regfile $end
     $var wire  1 ^" clk $end
     $var wire 32 k" i [31:0] $end
     $var wire 64 n! regfile(0) [63:0] $end
     $var wire 64 p! regfile(1) [63:0] $end
     $var wire 64 $" regfile(10) [63:0] $end
     $var wire 64 &" regfile(11) [63:0] $end
     $var wire 64 (" regfile(12) [63:0] $end
     $var wire 64 *" regfile(13) [63:0] $end
     $var wire 64 ," regfile(14) [63:0] $end
     $var wire 64 ." regfile(15) [63:0] $end
     $var wire 64 0" regfile(16) [63:0] $end
     $var wire 64 2" regfile(17) [63:0] $end
     $var wire 64 4" regfile(18) [63:0] $end
     $var wire 64 6" regfile(19) [63:0] $end
     $var wire 64 r! regfile(2) [63:0] $end
     $var wire 64 8" regfile(20) [63:0] $end
     $var wire 64 :" regfile(21) [63:0] $end
     $var wire 64 <" regfile(22) [63:0] $end
     $var wire 64 >" regfile(23) [63:0] $end
     $var wire 64 @" regfile(24) [63:0] $end
     $var wire 64 B" regfile(25) [63:0] $end
     $var wire 64 D" regfile(26) [63:0] $end
     $var wire 64 F" regfile(27) [63:0] $end
     $var wire 64 H" regfile(28) [63:0] $end
     $var wire 64 J" regfile(29) [63:0] $end
     $var wire 64 t! regfile(3) [63:0] $end
     $var wire 64 L" regfile(30) [63:0] $end
     $var wire 64 N" regfile(31) [63:0] $end
     $var wire 64 v! regfile(4) [63:0] $end
     $var wire 64 x! regfile(5) [63:0] $end
     $var wire 64 z! regfile(6) [63:0] $end
     $var wire 64 |! regfile(7) [63:0] $end
     $var wire 64 ~! regfile(8) [63:0] $end
     $var wire 64 "" regfile(9) [63:0] $end
     $var wire  5 . rs1_addr [4:0] $end
     $var wire 64 * rs1_data [63:0] $end
     $var wire  1 # rs1_en $end
     $var wire  5 / rs2_addr [4:0] $end
     $var wire 64 , rs2_data [63:0] $end
     $var wire  1 $ rs2_en $end
     $var wire  1 _" rst $end
     $var wire  5 0 wr_addr [4:0] $end
     $var wire 64 U" wr_data [63:0] $end
     $var wire  1 4 wr_en $end
    $upscope $end
   $upscope $end
  $upscope $end
 $upscope $end
$enddefinitions $end


#1000
0#
0$
1%
0&
b0000000000000000000000000000000000000000000000000000000000000000 '
b0000000 )
b0000000000000000000000000000000000000000000000000000000000000000 *
b0000000000000000000000000000000000000000000000000000000000000000 ,
b00000 .
b00000 /
b00000 0
b0000000000000000000000000000000000000000000000000000000000000000 1
b0000 3
14
b00000000 5
b00000000000000000 6
07
08
b00000000000000000000000000000000 9
b0000000000000000000000000000000000000000000000000000000000000000 :
b0000000000000000000000000000000000000000000000000000000000000000 <
b0000000000000000000000000000000000000000000000000000000000000000 >
0@
0A
0B
0C
0D
0E
0F
0G
0H
0I
0J
0K
0L
0M
0N
0O
0P
0Q
0R
0S
0T
0U
0V
b0000000000000000000000000000000000000000000000000000000000000000 W
b0000000000000000000000000000000000000000000000000000000000000000 Y
0[
b0000000000000000000000000000000000000000000000000000000000000000 \
0^
b0000000000000000000000000000000000000000000000000000000000000000 _
b0000000000000000000000000000000000000000000000000000000000000000 a
b0000000000000000000000000000000000000000000000000000000000000000 c
b0000000000000000000000000000000000000000000000000000000000000000 e
b0000000000000000000000000000000000000000000000000000000000000000 g
b0000000000000000000000000000000000000000000000000000000000000000 i
b0000000000000000000000000000000000000000000000000000000000000000 k
b0000000000000000000000000000000000000000000000000000000000000000 m
b0000000000000000000000000000000000000000000000000000000000000000 o
b0000000000000000000000000000000000000000000000000000000000000001 q
b0000000000000000000000000000000000000000000000000000000000000000 s
0u
b0000000000000000000000000000000000000000000000000000000000000000 v
0x
b0000000 y
b000 z
b0000000 {
b0000000000000000000000000000000000000000000000000000000000000000 |
b0000000000000000000000000000000000000000000000000000000000000000 ~
b0000000000000000000000000000000000000000000000000000000000000000 "!
b0000000000000000000000000000000000000000000000000000000000000000 $!
b0000000000000000000000000000000000000000000000000000000000000000 &!
1(!
0)!
0*!
0+!
0,!
0-!
0.!
0/!
00!
01!
02!
03!
04!
05!
06!
07!
08!
09!
0:!
0;!
0<!
0=!
0>!
0?!
0@!
0A!
0B!
0C!
0D!
0E!
0F!
0G!
0H!
0I!
0J!
0K!
0L!
0M!
0N!
0O!
0P!
0Q!
0R!
0S!
0T!
0U!
0V!
0W!
0X!
0Y!
0Z!
0[!
0\!
0]!
0^!
0_!
0`!
0a!
0b!
0c!
0d!
0e!
0f!
0g!
0h!
0i!
0j!
0k!
0l!
0m!
b0000000000000000000000000000000000000000000000000000000000000000 n!
b0000000000000000000000000000000000000000000000000000000000000000 p!
b0000000000000000000000000000000000000000000000000000000000000000 r!
b0000000000000000000000000000000000000000000000000000000000000000 t!
b0000000000000000000000000000000000000000000000000000000000000000 v!
b0000000000000000000000000000000000000000000000000000000000000000 x!
b0000000000000000000000000000000000000000000000000000000000000000 z!
b0000000000000000000000000000000000000000000000000000000000000000 |!
b0000000000000000000000000000000000000000000000000000000000000000 ~!
b0000000000000000000000000000000000000000000000000000000000000000 ""
b0000000000000000000000000000000000000000000000000000000000000000 $"
b0000000000000000000000000000000000000000000000000000000000000000 &"
b0000000000000000000000000000000000000000000000000000000000000000 ("
b0000000000000000000000000000000000000000000000000000000000000000 *"
b0000000000000000000000000000000000000000000000000000000000000000 ,"
b0000000000000000000000000000000000000000000000000000000000000000 ."
b0000000000000000000000000000000000000000000000000000000000000000 0"
b0000000000000000000000000000000000000000000000000000000000000000 2"
b0000000000000000000000000000000000000000000000000000000000000000 4"
b0000000000000000000000000000000000000000000000000000000000000000 6"
b0000000000000000000000000000000000000000000000000000000000000000 8"
b0000000000000000000000000000000000000000000000000000000000000000 :"
b0000000000000000000000000000000000000000000000000000000000000000 <"
b0000000000000000000000000000000000000000000000000000000000000000 >"
b0000000000000000000000000000000000000000000000000000000000000000 @"
b0000000000000000000000000000000000000000000000000000000000000000 B"
b0000000000000000000000000000000000000000000000000000000000000000 D"
b0000000000000000000000000000000000000000000000000000000000000000 F"
b0000000000000000000000000000000000000000000000000000000000000000 H"
b0000000000000000000000000000000000000000000000000000000000000000 J"
b0000000000000000000000000000000000000000000000000000000000000000 L"
b0000000000000000000000000000000000000000000000000000000000000000 N"
b0000000000000000000000000000000000000000000000000000000000000100 P"
b000 R"
b0000000000000000000000000000000000000000000000000000000000000000 S"
b0000000000000000000000000000000000000000000000000000000000000000 U"
0W"
b0000000000000000000000000000000000000000000000000000000000000000 X"
b0000000000000000000000000000000000000000000000000000000000000100 Z"
b0000000000000000000000000000000000000000000000000000000000000000 \"
1^"
1_"
0`"
b0000000000000000000000000000000000000000000000000000000000000100 a"
1c"
b0000000000000000000000000000000000000000000000000000000000000000 d"
b0000000000000000000000000000000000000000000000000000000000000000 f"
b0000000000000000000000000000000000000000000000000000000000000000 h"
b00000000 j"
b00000000000000000000000000000000 k"
#2000
0^"
#3000
b0000000000000000000000000000000001111111111111111111111111111100 1
b0000000000000000000000000000000010000000000000000000000000000000 P"
b0000000000000000000000000000000001111111111111111111111111111100 X"
b0000000000000000100100010001011100000000000000000000010000010011 \"
1^"
b0000000000000000000000000000000010000000000000000000000000000000 a"
#4000
0^"
#5000
1^"
#6000
0^"
#7000
1^"
#8000
0^"
0_"
#9000
1#
b01000 0
b0000000000000000000000000000000010000000000000000000000000000000 1
b00000000000000001 6
b00000000000000000000010000010011 9
1A
1D
1F
b0010011 y
b0000000000000000000000000000000000000000000000000000000000001000 "!
b0000000000000000000000000000000000000000000000000000000000001000 $!
11!
15!
16!
1]!
b0000000000000000000000000000000010000000000000000000000000000100 P"
b0000000000000000000000000000000010000000000000000000000000000000 X"
b1111111111000001000000010001001100000000000000001001000100010111 \"
1^"
b0000000000000000000000000000000010000000000000000000000000000100 a"
#10000
0^"
#11000
0#
b0000000000000000000000000000000000000000000000001001000000000000 '
b00001 .
b00010 0
b0000000000000000000000000000000010000000000000000000000000000100 1
b1000 3
b00000000000000001001000100010111 9
b0000000000000000000000000000000010000000000000000000000000000100 :
b0000000000000000000000000000000000000000000000001001000000000000 <
b0000000000000000000000000000000010000000000000001001000000000100 >
0A
1B
b0000000000000000000000000000000010000000000000000000000000000100 W
b0000000000000000000000000000000000000000000000001001000000000000 Y
b0000000000000000000000000000000010000000000000001001000000000100 \
b0000000000000000000000000000000010000000000000001001000000000100 a
b0000000000000000000000000000000010000000000000001001000000000100 c
b0000000000000000000000000000000000000000000000001001000000000000 e
b0000000000000000000000000000000000000000000000000000000000000000 q
b0000000000000000000000000000000000000000000000000000000000000001 s
b0000000000000000000000000000000010000000000000001001000000000100 v
b0010111 y
b001 z
b0000000000000000000000000000000000000000000000001001000000000000 ~
b0000000000000000000000000000000000000000000000000000000000000010 "!
b0000000000000000000000000000000000000000000000000000000000000010 $!
b0000000000000000000000000000000000000000000000001001000000000000 &!
0(!
1)!
10!
01!
05!
06!
1U!
b0000000000000000000000000000000010000000000000000000000000001000 P"
b0000000000000000000000000000000010000000000000001001000000000100 U"
b0000000000000000000000000000000010000000000000000000000000000100 X"
b0001001000000000000000001110111111111111110000010000000100010011 \"
1^"
b0000000000000000000000000000000010000000000000000000000000001000 a"
#12000
0^"
#13000
1#
b1111111111111111111111111111111111111111111111111111111111111100 '
b0000000000000000000000000000000010000000000000001001000000000100 *
b00010 .
b11100 /
b0000000000000000000000000000000010000000000000000000000000001000 1
b0000 3
b11111111110000010000000100010011 9
b0000000000000000000000000000000010000000000000001001000000000100 :
b1111111111111111111111111111111111111111111111111111111111111100 <
b0000000000000000000000000000000010000000000000001001000000000000 >
1A
0B
b0000000000000000000000000000000010000000000000001001000000000100 W
b1111111111111111111111111111111111111111111111111111111111111100 Y
b0000000000000000000000000000000010000000000000001001000000000000 \
1^
b0000000000000000000000000000000010000000000000001001000000000100 _
b1111111111111111111111111111111111111111111111111111111111111100 a
b1111111111111111111111111111111101111111111111110110111111111000 c
b1111111111111111111111111111111111111111111111111111000000000000 e
b0000000000000000000000000000000000000000000000000000000000000001 i
b0000000000000000000000000000000010000000000000001001000000000000 v
1x
b0010011 y
b000 z
b1111111 {
b1111111111111111111111111111111111111111111111111111111111111100 |
b1111111111111111111111111111111111111111110000010000000000000000 ~
b1111111111111111111111111111111111111111111111111111111111100010 "!
b1111111111111111111111111111111111111111111111111111011111100010 $!
b1111111111111111111111111111111111111111111100010000011111111100 &!
1(!
0)!
00!
11!
15!
16!
0U!
b0000000000000000000000000000000010000000000000001001000000000100 r!
b0000000000000000000000000000000010000000000000000000000000001100 P"
b0000000000000000000000000000000010000000000000001001000000000000 U"
b0000000000000000000000000000000010000000000000000000000000001000 X"
b0000000000000101000001000110001100010010000000000000000011101111 \"
1^"
b0000000000000000000000000000000010000000000000000000000000001100 a"
#14000
0^"
#15000
0#
b0000000000000000000000000000000000000000000000000000000100100000 '
b0000000000000000000000000000000000000000000000000000000000000000 *
b00000 .
b00000 /
b00001 0
b0000000000000000000000000000000010000000000000000000000000001100 1
b0010 3
b00010010000000000000000011101111 9
b0000000000000000000000000000000010000000000000000000000000001100 :
b0000000000000000000000000000000000000000000000000000000000000100 <
b0000000000000000000000000000000010000000000000000000000000010000 >
0A
1B
0D
1E
b0000000000000000000000000000000010000000000000000000000000001100 W
b0000000000000000000000000000000000000000000000000000000000000100 Y
b0000000000000000000000000000000010000000000000000000000000010000 \
0^
b0000000000000000000000000000000000000000000000000000000000000100 _
b0000000000000000000000000000000010000000000000000000000000001100 a
b0000000000000000000000000000000010000000000000000000000000001000 c
b0000000000000000000000000000000000000000000000000000000000000000 e
b0000000000000000000000000000000000000000000000000000000000000000 i
b0000000000000000000000000000100000000000000000000000000011000000 k
b0000000000000000000000000000000000001000000000000000000000000000 m
b0000000000000000000000000000000000001000000000000000000000000000 o
b0000000000000000000000000000000010000000000000000000000000010000 v
0x
b1101111 y
b0001001 {
b0000000000000000000000000000000000000000000000000000000100100000 |
b0000000000000000000000000000000000010010000000000000000000000000 ~
b0000000000000000000000000000000000000000000000000000000100100001 "!
b0000000000000000000000000000000000000000000000000000100100100000 $!
b0000000000000000000000000000000000000000000000000000000100100000 &!
01!
13!
05!
06!
b0000000000000000000000000000000010000000000000001001000000000000 r!
b0000000000000000000000000000000010000000000000000000000100101100 P"
b010 R"
b0000000000000000000000000000000010000000000000000000000000010000 U"
b0000000000000000000000000000000010000000000000000000000000001100 X"
b0000000000000000000000000000000000000000000000000000000100100000 Z"
b0000000000000000000001010001011111111111000000010000000100010011 \"
1^"
b0000000000000000000000000000000010000000000000000000000100101100 a"
#16000
0^"
#17000
1#
b1111111111111111111111111111111111111111111111111111111111110000 '
b0000000000000000000000000000000010000000000000001001000000000000 *
b00010 .
b10000 /
b00010 0
b0000000000000000000000000000000010000000000000000000000100101100 1
b0000 3
b11111111000000010000000100010011 9
b0000000000000000000000000000000010000000000000001001000000000000 :
b1111111111111111111111111111111111111111111111111111111111110000 <
b0000000000000000000000000000000010000000000000001000111111110000 >
1A
0B
1D
0E
b0000000000000000000000000000000010000000000000001001000000000000 W
b1111111111111111111111111111111111111111111111111111111111110000 Y
b0000000000000000000000000000000010000000000000001000111111110000 \
1^
b0000000000000000000000000000000010000000000000001001000000000000 _
b1111111111111111111111111111111111111111111111111111111111110000 a
b1111111111111111111111111111111101111111111111110110111111110000 c
b1111111111111111111111111111111111111111111111111111000000000000 e
b0000000000000000000000000000000000000000000000000000000000000001 i
b0000000000000000000000000000000000000000000000000000000000000000 k
b0000000000000000000000000000000000000000000000000000000000000000 m
b0000000000000000000000000000000000000000000000000000000000000000 o
b0000000000000000000000000000000010000000000000001000111111110000 v
1x
b0010011 y
b1111111 {
b1111111111111111111111111111111111111111111111111111111111110000 |
b1111111111111111111111111111111111111111000000010000000000000000 ~
b1111111111111111111111111111111111111111111111111111111111100010 "!
b1111111111111111111111111111111111111111111111111111011111100010 $!
b1111111111111111111111111111111111111111111100010000011111110000 &!
11!
03!
15!
16!
b0000000000000000000000000000000010000000000000000000000000010000 p!
b0000000000000000000000000000000010000000000000000000000100110000 P"
b000 R"
b0000000000000000000000000000000010000000000000001000111111110000 U"
b0000000000000000000000000000000010000000000000000000000100101100 X"
b0000000000000000000000000000000000000000000000000000000000000100 Z"
b0000001000000101000001010001001100000000000000000000010100010111 \"
1^"
b0000000000000000000000000000000010000000000000000000000100110000 a"
#18000
0^"
#19000
0#
b0000000000000000000000000000000000000000000000000000000000000000 '
b0000000000000000000000000000000000000000000000000000000000000000 *
b00000 .
b00000 /
b01010 0
b0000000000000000000000000000000010000000000000000000000100110000 1
b1000 3
b00000000000000000000010100010111 9
b0000000000000000000000000000000010000000000000000000000100110000 :
b0000000000000000000000000000000000000000000000000000000000000000 <
b0000000000000000000000000000000010000000000000000000000100110000 >
0A
1B
b0000000000000000000000000000000010000000000000000000000100110000 W
b0000000000000000000000000000000000000000000000000000000000000000 Y
b0000000000000000000000000000000010000000000000000000000100110000 \
0^
b0000000000000000000000000000000000000000000000000000000000000000 _
b0000000000000000000000000000000010000000000000000000000100110000 a
b0000000000000000000000000000000010000000000000000000000100110000 c
b0000000000000000000000000000000000000000000000000000000000000000 e
b0000000000000000000000000000000000000000000000000000000000000000 i
b0000000000000000000000000000000010000000000000000000000100110000 k
b0000000000000000000000000000000010000000000000000000000100110000 m
b0000000000000000000000000000000010000000000000000000000100110000 o
b0000000000000000000000000000000010000000000000000000000100110000 v
0x
b0010111 y
b0000000 {
b0000000000000000000000000000000000000000000000000000000000000000 |
b0000000000000000000000000000000000000000000000000000000000000000 ~
b0000000000000000000000000000000000000000000000000000000000001010 "!
b0000000000000000000000000000000000000000000000000000000000001010 $!
b0000000000000000000000000000000000000000000000000000000000000000 &!
10!
01!
05!
06!
1U!
b0000000000000000000000000000000010000000000000001000111111110000 r!
b0000000000000000000000000000000010000000000000000000000100110100 P"
b0000000000000000000000000000000010000000000000000000000100110000 U"
b0000000000000000000000000000000010000000000000000000000100110000 X"
b0000000000010001001101000010001100000010000001010000010100010011 \"
1^"
b0000000000000000000000000000000010000000000000000000000100110100 a"
#20000
0^"
#21000
1#
b0000000000000000000000000000000000000000000000000000000000100000 '
b0000000000000000000000000000000010000000000000000000000100110000 *
b01010 .
b0000000000000000000000000000000010000000000000000000000100110100 1
b0000 3
b00000010000001010000010100010011 9
b0000000000000000000000000000000000000000000000000000000000100000 <
b0000000000000000000000000000000010000000000000000000000101010000 >
1A
0B
b0000000000000000000000000000000000000000000000000000000000100000 Y
b0000000000000000000000000000000010000000000000000000000101010000 \
b0000000000000000000000000000000000000000000000000000000000100000 _
b0000000000000000000000000000000010000000000000000000000100010000 c
b1000000000000000000000010011000000000000000000000000000000000000 k
b0000000000000000000000000000000000000000000000000000000000000000 m
b0000000000000000000000000000000000000000000000000000000000000000 o
b0000000000000000000000000000000010000000000000000000000101010000 v
b0010011 y
b0000001 {
b0000000000000000000000000000000000000000000000000000000000100000 |
b0000000000000000000000000000000000000010000001010000000000000000 ~
b0000000000000000000000000000000000000000000000000000000000101010 "!
b0000000000000000000000000000000000000000000000000000000000101010 $!
b0000000000000000000000000000000000000000000001010000000000100000 &!
00!
11!
15!
16!
0U!
b0000000000000000000000000000000010000000000000000000000100110000 $"
b0000000000000000000000000000000010000000000000000000000100111000 P"
b0000000000000000000000000000000010000000000000000000000101010000 U"
b0000000000000000000000000000000010000000000000000000000100110100 X"
b1110111011011111111100001110111100000000000100010011010000100011 \"
1^"
b0000000000000000000000000000000010000000000000000000000100111000 a"
#22000
0^"
#23000
1$
0%
b0000000000000000000000000000000000000000000000000000000000001000 '
b0000000000000000000000000000000010000000000000001000111111110000 *
b0000000000000000000000000000000010000000000000000000000000010000 ,
b00010 .
b00001 /
b01000 0
b0000000000000000000000000000000010000000000000000000000100111000 1
04
b00001000 5
18
b00000000000100010011010000100011 9
b0000000000000000000000000000000010000000000000001000111111110000 :
b0000000000000000000000000000000000000000000000000000000000001000 <
b0000000000000000000000000000000010000000000000001000111111111000 >
b0000000000000000000000000000000010000000000000001000111111110000 W
b0000000000000000000000000000000000000000000000000000000000001000 Y
b0000000000000000000000000000000010000000000000001000111111111000 \
b0000000000000000000000000000000000000000000000000000000000000000 _
b0000000000000000000000000000000010000000000000001000111111111000 a
b0000000000000000000000000000000010000000000000001000111111111000 c
b0000000000000000000000001000000000000000100011111111000000000000 k
b0000000000000000000000000000000000000000100000000000000010001111 m
b0000000000000000000000000000000000000000100000000000000010001111 o
b0000000000000000000000000000000010000000000000001000111111111000 v
b0100011 y
b011 z
b0000000 {
b0000000000000000000000000000000000000000000000000000000000000001 |
b0000000000000000000000000000000000000000000100010011000000000000 ~
b0000000000000000000000000000000000000000000000000000000000001000 "!
b0000000000000000000000000000000000000000000000000000000000001000 $!
b0000000000000000000000000000000000000000000000010011100000000000 &!
0(!
1+!
01!
05!
06!
1S!
b0000000000000000000000000000000010000000000000000000000101010000 $"
b0000000000000000000000000000000010000000000000000000000100111100 P"
b0000000000000000000000000000000000000000000000000000000000000000 U"
b0000000000000000000000000000000010000000000000000000000100111000 X"
b0000000000000101000001010001001111101110110111111111000011101111 \"
1^"
b0000000000000000000000000000000010000000000000000000000100111100 a"
#24000
0^"
